Use /omnitest/ctllib/release/inf_cservekt.ini file
/omniperf/procs/rel580/./define_ahst_segments
******************************************************************
*** OMNIPLUS/UX C Service & Enrollment Kit Extracts
******************************************************************
*** [14:14:33] inf_cservekt Submitted by: n244drh In release On: Thu May 30 14:14:33 EDT 2013
******************************************************************
*** Reload all file wil current data
******************************************************************
******************************************************************
*** Reload all - generate empty  OLD files
******************************************************************
Run program AULCSERV to extract data 141434 (AULCSERV) 
Starting at 141434
Run program AULCSERV to extract data 141434 (AULCSERV) Ending at 141846
AULCSERV ran Ok
Run program AULCSCMP to compare CService data 141846 (AULCSCMP) 
Starting at 141846
Run program AULCSCMP to compare CService data 141846 (AULCSCMP) Ending at 141851
AULCSCMP ran Ok
Run program EKT1000E to compare Enrollment Kit data 141851 (EKT1000E) 
Starting at 141851
Run program EKT1000E to compare Enrollment Kit data 141851 (EKT1000E) Ending at 141851
***************************************
***************************************
**  inf_cservekt  Ended Abnormally
**  EKT1000E Error Code = 255
**  Thu May 30 14:18:51 EDT 2013
**  NOTE FOLLOWING ERROR MESSAGE(S):
**  --------------------------------
SYSOUT LOCATION: /omnitest/output/release/n244drh/20130530/inf_cservekt.141433.15538
***************************************
***************************************
check_status[276]: local_error_handling:  not found
